%YAML 1.1
%TAG !u! tag:unity3d.com,2011:
--- !u!78 &1
TagManager:
  serializedVersion: 2
  tags:
  - SpawnPoint
  - Rooms
  - Walls
  - Floor
  - Obsticle
  - EnemyProjectile
  - MP
  - HP
  - Enemy
  layers:
  - Default
  - TransparentFX
  - Ignore Raycast
  - 
  - Water
  - UI
  - 
  - 
  - floor
  - Walls
  - Decore
  - Plants
  - Player
  - enemy
  - 
  - 
  - 
  - 
  - 
  - 
  - 
  - 
  - 
  - 
  - 
  - 
  - 
  - 
  - 
  - 
  - 
  - 
  m_SortingLayers:
  - name: Default
    uniqueID: 0
    locked: 0
  - name: floor
    uniqueID: 2365252133
    locked: 0
  - name: leveldecor
    uniqueID: 3921790415
    locked: 0
  - name: Character
    uniqueID: 2382566209
    locked: 0
  - name: walls
    uniqueID: 430931933
    locked: 0
  - name: Player
    uniqueID: 1409304161
    locked: 0
