%YAML 1.1
%TAG !u! tag:unity3d.com,2011:
--- !u!78 &1
TagManager:
  serializedVersion: 2
  tags:
  - Background
  - Ball
  - Score
  - BBPlayer
  - Walls
  - PaddleBB
  - Brick
  - BBall
  - LeftBricks
  - RightBricks
  - LevelBuilder
  - BBScoreTxt
  - Score1
  - BallLeft
  - BallRight
  - Score2
  - Menu
  - rHeart1
  - rHeart2
  - rHeart3
  - lHeart1
  - lHeart2
  - lHeart3
  - rHeart4
  - lHeart4
  - rPlayerText
  - lPlayerText
  - rPanel
  - lPanel
  - LevelTraker
  - LeftScore
  - RightScore
  - PowerUp
  - Lock
  - PowerBall
  - PongMenu
  - GameNext
  - GameBack
  - GameTitle
  - PlayGame
  - TestBall
  - CometSpawner
  - SHP1
  - SHP2
  - SHP4
  - SHP3
  - Comet
  - Ship
  - missle
  - FireTrigger
  - PongManager
  - MenuWinnerLeft
  - MenuWinnerRight
  - MenuControls
  layers:
  - Default
  - TransparentFX
  - Ignore Raycast
  - 
  - Water
  - UI
  - 
  - 
  - BG
  - Walls
  - GameObjects
  - Player
  - MenUI
  - PowerUp
  - PowerBall
  - bricks
  - 
  - 
  - 
  - 
  - 
  - 
  - 
  - 
  - 
  - 
  - 
  - 
  - 
  - 
  - 
  - 
  m_SortingLayers:
  - name: Default
    uniqueID: 0
    locked: 0
  - name: BG
    uniqueID: 1287633595
    locked: 0
  - name: Walls
    uniqueID: 3744821889
    locked: 0
  - name: BG2
    uniqueID: 1734861857
    locked: 0
  - name: Player
    uniqueID: 3676234407
    locked: 0
  - name: Shield
    uniqueID: 4267641435
    locked: 0
