%YAML 1.1
%TAG !u! tag:unity3d.com,2011:
--- !u!1 &3437678248034865177
GameObject:
  m_ObjectHideFlags: 0
  m_CorrespondingSourceObject: {fileID: 0}
  m_PrefabInstance: {fileID: 0}
  m_PrefabAsset: {fileID: 0}
  serializedVersion: 6
  m_Component:
  - component: {fileID: 3437678248034865183}
  - component: {fileID: 3437678248034865182}
  - component: {fileID: -226255081832431179}
  m_Layer: 0
  m_Name: GameManagerBB
  m_TagString: Untagged
  m_Icon: {fileID: 0}
  m_NavMeshLayer: 0
  m_StaticEditorFlags: 0
  m_IsActive: 1
--- !u!4 &3437678248034865183
Transform:
  m_ObjectHideFlags: 0
  m_CorrespondingSourceObject: {fileID: 0}
  m_PrefabInstance: {fileID: 0}
  m_PrefabAsset: {fileID: 0}
  m_GameObject: {fileID: 3437678248034865177}
  m_LocalRotation: {x: 0, y: 0, z: 0, w: 1}
  m_LocalPosition: {x: 0, y: 0, z: 0}
  m_LocalScale: {x: 1, y: 1, z: 1}
  m_Children: []
  m_Father: {fileID: 0}
  m_RootOrder: 0
  m_LocalEulerAnglesHint: {x: 0, y: 0, z: 0}
--- !u!114 &3437678248034865182
MonoBehaviour:
  m_ObjectHideFlags: 0
  m_CorrespondingSourceObject: {fileID: 0}
  m_PrefabInstance: {fileID: 0}
  m_PrefabAsset: {fileID: 0}
  m_GameObject: {fileID: 3437678248034865177}
  m_Enabled: 1
  m_EditorHideFlags: 0
  m_Script: {fileID: 11500000, guid: 8be49edac267ef74daaf8087b5cb8484, type: 3}
  m_Name: 
  m_EditorClassIdentifier: 
  paddle: {fileID: 3912729308613055416, guid: e443d4ae91f0a964ab890cea0953a4ca, type: 3}
  ball: {fileID: 2724233284678834889, guid: 5a353e7af34bb13499acc610c92f0535, type: 3}
--- !u!114 &-226255081832431179
MonoBehaviour:
  m_ObjectHideFlags: 0
  m_CorrespondingSourceObject: {fileID: 0}
  m_PrefabInstance: {fileID: 0}
  m_PrefabAsset: {fileID: 0}
  m_GameObject: {fileID: 3437678248034865177}
  m_Enabled: 0
  m_EditorHideFlags: 0
  m_Script: {fileID: 11500000, guid: b549138281f513c4eaa7bd03782118fb, type: 3}
  m_Name: 
  m_EditorClassIdentifier: 
  player1: 0
  sOne: {fileID: 21300000, guid: fef58b24b9530fb41a3007af7f6b58bb, type: 3}
  sTwo: {fileID: 0}
  sThree: {fileID: 0}
  sFour: {fileID: 0}
  sFive: {fileID: 0}
  sSix: {fileID: 0}
  sSeven: {fileID: 0}
  sEight: {fileID: 0}
  sNine: {fileID: 0}
  curScore: 0
