%YAML 1.1
%TAG !u! tag:unity3d.com,2011:
--- !u!74 &7400000
AnimationClip:
  m_ObjectHideFlags: 0
  m_CorrespondingSourceObject: {fileID: 0}
  m_PrefabInstance: {fileID: 0}
  m_PrefabAsset: {fileID: 0}
  m_Name: Bullet
  serializedVersion: 6
  m_Legacy: 0
  m_Compressed: 0
  m_UseHighQualityCurve: 1
  m_RotationCurves: []
  m_CompressedRotationCurves: []
  m_EulerCurves: []
  m_PositionCurves: []
  m_ScaleCurves: []
  m_FloatCurves: []
  m_PPtrCurves:
  - curve:
    - time: 0
      value: {fileID: 21300000, guid: 6191ded9f74df8c43be77f2d2a0f0a61, type: 3}
    - time: 0.083333336
      value: {fileID: 21300000, guid: 9581d4623a9a9804e9c7593c400ad001, type: 3}
    - time: 0.16666667
      value: {fileID: 21300000, guid: 1f35030ec54e69943a52c7d7b0158414, type: 3}
    - time: 0.25
      value: {fileID: 21300000, guid: 102a9f8b8d7eb5d4c93dc92c1daf4ea6, type: 3}
    - time: 0.33333334
      value: {fileID: 21300000, guid: 045e7ae329be9724bb71c3f06258958d, type: 3}
    - time: 0.41666666
      value: {fileID: 21300000, guid: 4c3e6c0d9d1698e4ea9a7d9246f8014d, type: 3}
    - time: 0.5
      value: {fileID: 21300000, guid: e375235cc9f144a47ae6613670776181, type: 3}
    - time: 0.5833333
      value: {fileID: 21300000, guid: b86b8d87406850e45b24939db5e3b584, type: 3}
    - time: 0.6666667
      value: {fileID: 21300000, guid: 6ddf60363de08b34ba75fb659bebdeb4, type: 3}
    - time: 0.75
      value: {fileID: 21300000, guid: 20be33eaf0f3fc64bb3e273cfcf835e2, type: 3}
    - time: 0.8333333
      value: {fileID: 21300000, guid: 9be4edb9d073e924d857d7dde709c8c5, type: 3}
    - time: 0.9166667
      value: {fileID: 21300000, guid: dfefae7820df0d34c92ccb0c3919eb8b, type: 3}
    - time: 1
      value: {fileID: 21300000, guid: 78744d4793596f54e87025da05a2e77e, type: 3}
    - time: 1.0833334
      value: {fileID: 21300000, guid: 10fb3f0af48ea224cb72d2a98a35eee3, type: 3}
    - time: 1.1666666
      value: {fileID: 21300000, guid: f9a13ea5d54ca2f4eac118a2b5fedcc1, type: 3}
    attribute: m_Sprite
    path: 
    classID: 212
    script: {fileID: 0}
  m_SampleRate: 12
  m_WrapMode: 0
  m_Bounds:
    m_Center: {x: 0, y: 0, z: 0}
    m_Extent: {x: 0, y: 0, z: 0}
  m_ClipBindingConstant:
    genericBindings:
    - serializedVersion: 2
      path: 0
      attribute: 0
      script: {fileID: 0}
      typeID: 212
      customType: 23
      isPPtrCurve: 1
    pptrCurveMapping:
    - {fileID: 21300000, guid: 6191ded9f74df8c43be77f2d2a0f0a61, type: 3}
    - {fileID: 21300000, guid: 9581d4623a9a9804e9c7593c400ad001, type: 3}
    - {fileID: 21300000, guid: 1f35030ec54e69943a52c7d7b0158414, type: 3}
    - {fileID: 21300000, guid: 102a9f8b8d7eb5d4c93dc92c1daf4ea6, type: 3}
    - {fileID: 21300000, guid: 045e7ae329be9724bb71c3f06258958d, type: 3}
    - {fileID: 21300000, guid: 4c3e6c0d9d1698e4ea9a7d9246f8014d, type: 3}
    - {fileID: 21300000, guid: e375235cc9f144a47ae6613670776181, type: 3}
    - {fileID: 21300000, guid: b86b8d87406850e45b24939db5e3b584, type: 3}
    - {fileID: 21300000, guid: 6ddf60363de08b34ba75fb659bebdeb4, type: 3}
    - {fileID: 21300000, guid: 20be33eaf0f3fc64bb3e273cfcf835e2, type: 3}
    - {fileID: 21300000, guid: 9be4edb9d073e924d857d7dde709c8c5, type: 3}
    - {fileID: 21300000, guid: dfefae7820df0d34c92ccb0c3919eb8b, type: 3}
    - {fileID: 21300000, guid: 78744d4793596f54e87025da05a2e77e, type: 3}
    - {fileID: 21300000, guid: 10fb3f0af48ea224cb72d2a98a35eee3, type: 3}
    - {fileID: 21300000, guid: f9a13ea5d54ca2f4eac118a2b5fedcc1, type: 3}
  m_AnimationClipSettings:
    serializedVersion: 2
    m_AdditiveReferencePoseClip: {fileID: 0}
    m_AdditiveReferencePoseTime: 0
    m_StartTime: 0
    m_StopTime: 1.25
    m_OrientationOffsetY: 0
    m_Level: 0
    m_CycleOffset: 0
    m_HasAdditiveReferencePose: 0
    m_LoopTime: 1
    m_LoopBlend: 0
    m_LoopBlendOrientation: 0
    m_LoopBlendPositionY: 0
    m_LoopBlendPositionXZ: 0
    m_KeepOriginalOrientation: 0
    m_KeepOriginalPositionY: 1
    m_KeepOriginalPositionXZ: 0
    m_HeightFromFeet: 0
    m_Mirror: 0
  m_EditorCurves: []
  m_EulerEditorCurves: []
  m_HasGenericRootTransform: 0
  m_HasMotionFloatCurves: 0
  m_Events: []
